Web scraping
…
This is almost useful! Turning it into a tibble and using separate to get the variables into separate columns gets us almost there:

rough_table <- table_text %>% 
  as_tibble() %>% 
  separate(value, into = c("state", "abbrev", "rate"), sep = "\n", extra = "drop") 
rough_table

## # A tibble: 52 x 3
##    state                abbrev             rate                          
##    <chr>                <chr>              <chr>                         
##  1 State                State Abbreviation Opioid Dispensing Rate per 100
##  2 Alabama              AL                 126.1                         
##  3 Alaska               AK                 68.5                          
##  4 Arizona              AZ                 80.9                          
##  5 Arkansas             AR                 112.1                         
##  6 California           CA                 55.1                          
##  7 Colorado             CO                 67.7                          
##  8 Connecticut          CT                 68.7                          
##  9 Delaware             DE                 95.4                          
## 10 District of Columbia DC                 34.5                          
## #  with 42 more rows

Now we can just divert to our standard tidyverse cleaning skills (janitor functions help here) to tidy it up:

d_prescriptions <- rough_table %>% 
  janitor::row_to_names(1) %>% 
  janitor::clean_names() %>% 
  rename(prescribing_rate = opioid_dispensing_rate_per_100) %>% 
  mutate(prescribing_rate = as.numeric(prescribing_rate)) 

d_prescriptions

## # A tibble: 51 x 3
##    state                state_abbreviation prescribing_rate
##    <chr>                <chr>                         <dbl>
##  1 Alabama              AL                            126. 
##  2 Alaska               AK                             68.5
##  3 Arizona              AZ                             80.9
##  4 Arkansas             AR                            112. 
##  5 California           CA                             55.1
##  6 Colorado             CO                             67.7
##  7 Connecticut          CT                             68.7
##  8 Delaware             DE                             95.4
##  9 District of Columbia DC                             34.5
## 10 Florida              FL                             84.3
## #  with 41 more rows
…
